{
	"_id" : "507f1f77bcf86cd799439011", //this sample only this is auto generated
	"firstName" : "John",
	"lastName" : "Smith",
	"email" : "johnsmith@mail.com",
	"passwprd" : "johnhandsome",
	"isAdmin" : false,
	"mobileNumber" : "09123456789",
	"enrollments" : ["601ccbe89bcd482ee8fa2c99", "507f191e810c19729de860ea"], //Object ID of specific course 
	"dateTimeRegistered" : "2020-03-15T15:00:00.00Z"

}

{
	"_id" : "507f1f77bcf86cd799439012", //this sample only this is auto generated
	"firstName" : "Jane",
	"lastName" : "Doe",
	"email" : "janedoe@zuitt.com",
	"passwprd" : "janepretty",
	"isAdmin" : true,
	"mobileNumber" : "09123456789",
	"enrollments" : [], //Already admin no need to enroll 
	"dateTimeRegistered" : "2020-03-15T15:00:00.00Z"

}

{
	"_id" : "507f1f77bcf86cd799439013", //this sample only this is auto generated
	"firstName" : "Franz",
	"lastName" : "Campued",
	"email" : "campuedfranz@gmail.com",
	"passwprd" : "admin123"
	"isAdmin" : true,
	"mobileNumber" : "09687747689",
	"enrollments" : [], //Already admin no need to enroll 
	"dateTimeRegistered" : "2020-03-15T15:00:00.00Z"

}